{
	"info": {
		"_postman_id": "3d2d4a15-001b-4fab-ae79-d30247f5bc5b",
		"name": "Team C API - Movie Apps",
		"schema": "https://schema.getpostman.com/json/collection/v2.1.0/collection.json"
	},
	"item": [
		{
			"name": "Users",
			"item": [
				{
					"name": "Users Register",
					"request": {
						"method": "POST",
						"header": [],
						"body": {
							"mode": "raw",
							"raw": "{\n    \"full_name\":\"Ade Firmansyah\",\n    \"username\": \"adefirman27\",\n    \"email\": \"adef008@gmail.com\",\n    \"password\":\"ade123\"\n}",
							"options": {
								"raw": {
									"language": "json"
								}
							}
						},
						"url": {
							"raw": "https://movie-app-teamc.herokuapp.com/api/users/register",
							"protocol": "https",
							"host": [
								"movie-app-teamc",
								"herokuapp",
								"com"
							],
							"path": [
								"api",
								"users",
								"register"
							]
						}
					},
					"response": []
				},
				{
					"name": "Users Login",
					"request": {
						"method": "POST",
						"header": [],
						"body": {
							"mode": "raw",
							"raw": "{\n\"email\":\"barong@gmail.com\",\n\"password\": \"admin123\"\n}",
							"options": {
								"raw": {
									"language": "json"
								}
							}
						},
						"url": {
							"raw": "https://movie-app-teamc.herokuapp.com/api/users/login",
							"protocol": "https",
							"host": [
								"movie-app-teamc",
								"herokuapp",
								"com"
							],
							"path": [
								"api",
								"users",
								"login"
							]
						}
					},
					"response": [
						{
							"name": " https://rocky-beyond-12209.herokuapp.com/api/users/login",
							"originalRequest": {
								"method": "POST",
								"header": [],
								"body": {
									"mode": "raw",
									"raw": "{\n\"email\":\"nandra@gmail.com\",\n\"password\": \"admin123\"\n}",
									"options": {
										"raw": {
											"language": "json"
										}
									}
								},
								"url": {
									"raw": "https://movie-app-teamc.herokuapp.com/api/users/login",
									"protocol": "https",
									"host": [
										"movie-app-teamc",
										"herokuapp",
										"com"
									],
									"path": [
										"api",
										"users",
										"login"
									]
								}
							},
							"status": "OK",
							"code": 200,
							"_postman_previewlanguage": "json",
							"header": [
								{
									"key": "Server",
									"value": "Cowboy"
								},
								{
									"key": "Connection",
									"value": "keep-alive"
								},
								{
									"key": "X-Powered-By",
									"value": "Express"
								},
								{
									"key": "Access-Control-Allow-Origin",
									"value": "https://movie-app-teamc.herokuapp.com/"
								},
								{
									"key": "Vary",
									"value": "Origin"
								},
								{
									"key": "Content-Type",
									"value": "application/json; charset=utf-8"
								},
								{
									"key": "Content-Length",
									"value": "413"
								},
								{
									"key": "Etag",
									"value": "W/\"19d-vnIf46OqOQjeJCJshj/UYFgJzh4\""
								},
								{
									"key": "Date",
									"value": "Wed, 16 Jun 2021 01:56:47 GMT"
								},
								{
									"key": "Via",
									"value": "1.1 vegur"
								}
							],
							"cookie": [],
							"body": "{\n    \"status\": 200,\n    \"message\": \"ok\",\n    \"data\": {\n        \"token\": \"eyJhbGciOiJIUzI1NiIsInR5cCI6IkpXVCJ9.eyJpZCI6MiwiZnVsbF9uYW1lIjoiTmFuZHJhIFB1dHJhIiwidXNlcm5hbWUiOiJOYW5kcmExNSIsImVtYWlsIjoibmFuZHJhQGdtYWlsLmNvbSIsInByb2ZpbGVfcGljdHVyZSI6ImluaSB1cmwgZm90byIsImNyZWF0ZWRBdCI6IjIwMjEtMDYtMTVUMDU6NTU6MzEuNDkyWiIsInVwZGF0ZWRBdCI6IjIwMjEtMDYtMTVUMDU6NTU6MzEuNDkyWiIsImlhdCI6MTYyMzgwODYwN30.pLVRYDQKQrmEa2A2FDMpOtmwbZPAZig0J8DpEp6w-5w\"\n    }\n}"
						}
					]
				},
				{
					"name": "Get user by ID",
					"protocolProfileBehavior": {
						"disableBodyPruning": true
					},
					"request": {
						"method": "GET",
						"header": [],
						"body": {
							"mode": "urlencoded",
							"urlencoded": [
								{
									"key": "id",
									"value": "3",
									"type": "text"
								}
							]
						},
						"url": {
							"raw": "https://movie-app-teamc.herokuapp.com/api/user/id",
							"protocol": "https",
							"host": [
								"movie-app-teamc",
								"herokuapp",
								"com"
							],
							"path": [
								"api",
								"user",
								"id"
							]
						}
					},
					"response": []
				},
				{
					"name": "Get Users With His Watchlist",
					"protocolProfileBehavior": {
						"disableBodyPruning": true
					},
					"request": {
						"method": "GET",
						"header": [
							{
								"key": "Authorization",
								"value": "eyJhbGciOiJIUzI1NiIsInR5cCI6IkpXVCJ9.eyJpZCI6MjMsImZ1bGxfbmFtZSI6Ik5hbmRyYSBQdXRyYSIsInVzZXJuYW1lIjoiTmFuZHJhMTUiLCJlbWFpbCI6Im5hbmRyYUBnbWFpbC5jb20iLCJwcm9maWxlX3BpY3R1cmUiOiJpbmkgdXJsIGZvdG8iLCJjcmVhdGVkQXQiOiIyMDIxLTA2LTE1VDA1OjU1OjMxLjQ5MloiLCJ1cGRhdGVkQXQiOiIyMDIxLTA2LTE1VDA1OjU1OjMxLjQ5MloiLCJpYXQiOjE2MjM3MzY1Njd9.euoWHN7pij-4vvoRh9hwiSwD_FXVpCaxHx8nUfqeKO0",
								"type": "text",
								"disabled": true
							}
						],
						"body": {
							"mode": "raw",
							"raw": ""
						},
						"url": {
							"raw": "https://movie-app-teamc.herokuapp.com/api/users",
							"protocol": "https",
							"host": [
								"movie-app-teamc",
								"herokuapp",
								"com"
							],
							"path": [
								"api",
								"users"
							]
						}
					},
					"response": [
						{
							"name": " https://rocky-beyond-12209.herokuapp.com/api/users",
							"originalRequest": {
								"method": "GET",
								"header": [
									{
										"key": "Authorization",
										"value": "eyJhbGciOiJIUzI1NiIsInR5cCI6IkpXVCJ9.eyJpZCI6MjMsImZ1bGxfbmFtZSI6Ik5hbmRyYSBQdXRyYSIsInVzZXJuYW1lIjoiTmFuZHJhMTUiLCJlbWFpbCI6Im5hbmRyYUBnbWFpbC5jb20iLCJwcm9maWxlX3BpY3R1cmUiOiJpbmkgdXJsIGZvdG8iLCJjcmVhdGVkQXQiOiIyMDIxLTA2LTE1VDA1OjU1OjMxLjQ5MloiLCJ1cGRhdGVkQXQiOiIyMDIxLTA2LTE1VDA1OjU1OjMxLjQ5MloiLCJpYXQiOjE2MjM3MzY1Njd9.euoWHN7pij-4vvoRh9hwiSwD_FXVpCaxHx8nUfqeKO0",
										"type": "text",
										"disabled": true
									}
								],
								"url": {
									"raw": "https://movie-app-teamc.herokuapp.com/api/users",
									"protocol": "https",
									"host": [
										"movie-app-teamc",
										"herokuapp",
										"com"
									],
									"path": [
										"api",
										"users"
									]
								}
							},
							"status": "OK",
							"code": 200,
							"_postman_previewlanguage": "json",
							"header": [
								{
									"key": "Server",
									"value": "Cowboy"
								},
								{
									"key": "Connection",
									"value": "keep-alive"
								},
								{
									"key": "X-Powered-By",
									"value": "Express"
								},
								{
									"key": "Access-Control-Allow-Origin",
									"value": "https://movie-app-teamc.herokuapp.com/"
								},
								{
									"key": "Vary",
									"value": "Origin"
								},
								{
									"key": "Content-Type",
									"value": "application/json; charset=utf-8"
								},
								{
									"key": "Content-Length",
									"value": "2825"
								},
								{
									"key": "Etag",
									"value": "W/\"b09-qQQZn216l1J1S9Q9ETCTZJ2gMBQ\""
								},
								{
									"key": "Date",
									"value": "Wed, 16 Jun 2021 02:01:25 GMT"
								},
								{
									"key": "Via",
									"value": "1.1 vegur"
								}
							],
							"cookie": [],
							"body": "{\n    \"statusCode\": 200,\n    \"statusText\": \"Success\",\n    \"message\": \"Get all data user\",\n    \"data\": [\n        {\n            \"id\": 1,\n            \"role\": \"users\",\n            \"full_name\": \"Budiman Laksana\",\n            \"username\": \"Budiman_Tampan\",\n            \"email\": \"budiman@gmail.com\",\n            \"password\": \"admin123\",\n            \"profile_picture\": \"ini url foto\",\n            \"createdAt\": \"2021-06-14T05:20:10.321Z\",\n            \"updatedAt\": \"2021-06-15T06:27:13.528Z\",\n            \"watchlist\": {\n                \"id\": 1,\n                \"movie_id\": 1,\n                \"user_id\": 1,\n                \"createdAt\": \"2021-06-14T09:49:58.918Z\",\n                \"updatedAt\": \"2021-06-14T09:49:58.918Z\",\n                \"movies\": []\n            }\n        },\n        {\n            \"id\": 2,\n            \"role\": \"users\",\n            \"full_name\": \"Nandra Putra Aryanto\",\n            \"username\": \"nandra_putra\",\n            \"email\": \"nandraPutra@gmail.com\",\n            \"password\": \"admin123\",\n            \"profile_picture\": \"ini url foto\",\n            \"createdAt\": \"2021-06-15T05:55:31.492Z\",\n            \"updatedAt\": \"2021-06-16T01:58:10.157Z\",\n            \"watchlist\": {\n                \"id\": 2,\n                \"movie_id\": 2,\n                \"user_id\": 2,\n                \"createdAt\": \"2021-06-14T09:49:58.918Z\",\n                \"updatedAt\": \"2021-06-14T09:49:58.918Z\",\n                \"movies\": [\n                    {\n                        \"id\": 2,\n                        \"title\": \"Ant-man\",\n                        \"description\": \"Lorem ipsum\",\n                        \"release_date\": \"June, 27 2111\",\n                        \"director\": \"Orang\",\n                        \"featured_song\": \"theme song Ant-man\",\n                        \"budget\": \"300 Dollar USD\",\n                        \"rating\": 8,\n                        \"synopsis\": \"Lorem ipsum ipsum lorem\",\n                        \"trailer\": \"Ini trailer pokoknya\",\n                        \"watchlist_id\": 2,\n                        \"poster\": \"ini Poster film\",\n                        \"category_id\": 1,\n                        \"createdAt\": \"2021-06-15T14:48:08.149Z\",\n                        \"updatedAt\": \"2021-06-15T14:48:08.149Z\"\n                    },\n                    {\n                        \"id\": 1,\n                        \"title\": \"Film, pokoknya ini film\",\n                        \"description\": \"Lorem ipsum\",\n                        \"release_date\": \"March, 27 2002\",\n                        \"director\": \"Ade Firmansyah\",\n                        \"featured_song\": \"theme song pokoknya\",\n                        \"budget\": \"300 Dollar USD\",\n                        \"rating\": 8,\n                        \"synopsis\": \"Lorem ipsum ipsum lorem\",\n                        \"trailer\": \"Ini trailer pokoknya\",\n                        \"watchlist_id\": 2,\n                        \"poster\": \"ini Poster film\",\n                        \"category_id\": 1,\n                        \"createdAt\": \"2021-06-15T11:12:46.200Z\",\n                        \"updatedAt\": \"2021-06-15T11:12:46.200Z\"\n                    }\n                ]\n            }\n        },\n        {\n            \"id\": 25,\n            \"role\": null,\n            \"full_name\": \"dani arkam\",\n            \"username\": \"hematenergi123\",\n            \"email\": \"hematenergi@gmail.com\",\n            \"password\": \"$2b$10$nl/B3eqQmFXY/R.CCDzNW.uMSaV/nc8GFgSjRFEEhED55AdaH2jga\",\n            \"profile_picture\": \"ini url Picture\",\n            \"createdAt\": \"2021-06-15T15:11:21.081Z\",\n            \"updatedAt\": \"2021-06-15T15:11:21.081Z\",\n            \"watchlist\": null\n        },\n        {\n            \"id\": 26,\n            \"role\": null,\n            \"full_name\": \"test\",\n            \"username\": \"test123\",\n            \"email\": \"test123@gmail.com\",\n            \"password\": \"$2b$10$snu0pBhhsSiCvOg9raHTtuvmcRNnfqLaSU/Pedi/tj3n11Rqmo6Hi\",\n            \"profile_picture\": \"ini url\",\n            \"createdAt\": \"2021-06-15T15:32:59.243Z\",\n            \"updatedAt\": \"2021-06-15T15:32:59.243Z\",\n            \"watchlist\": null\n        },\n        {\n            \"id\": 24,\n            \"role\": null,\n            \"full_name\": \"Arya Cahya\",\n            \"username\": \"arya12\",\n            \"email\": \"arya@gmail.com\",\n            \"password\": \"$2b$10$GCN8K0Jxc/dUV5EqCTJ8BeepWMItzyZ3bzPWGBswg3zD7wv6FjLsG\",\n            \"profile_picture\": \"ini url foto\",\n            \"createdAt\": \"2021-06-15T15:08:43.625Z\",\n            \"updatedAt\": \"2021-06-15T15:08:43.625Z\",\n            \"watchlist\": null\n        },\n        {\n            \"id\": 28,\n            \"role\": null,\n            \"full_name\": \"cihuy\",\n            \"username\": \"cihuy123\",\n            \"email\": \"cihuy@gmail.com\",\n            \"password\": \"$2b$10$zmde067BEK7sy/nw.89whOxbNSN/xkyorsPPxtKnrajZbgnlB1.N6\",\n            \"profile_picture\": \"ini url\",\n            \"createdAt\": \"2021-06-15T15:50:29.058Z\",\n            \"updatedAt\": \"2021-06-15T15:50:29.058Z\",\n            \"watchlist\": null\n        }\n    ]\n}"
						}
					]
				},
				{
					"name": "Users Update",
					"request": {
						"method": "PUT",
						"header": [
							{
								"key": "Authorization",
								"type": "text",
								"value": "eyJhbGciOiJIUzI1NiIsInR5cCI6IkpXVCJ9.eyJpZCI6MiwiZnVsbF9uYW1lIjoiTmFuZHJhIFB1dHJhIiwidXNlcm5hbWUiOiJOYW5kcmExNSIsImVtYWlsIjoibmFuZHJhQGdtYWlsLmNvbSIsInByb2ZpbGVfcGljdHVyZSI6ImluaSB1cmwgZm90byIsImNyZWF0ZWRBdCI6IjIwMjEtMDYtMTVUMDU6NTU6MzEuNDkyWiIsInVwZGF0ZWRBdCI6IjIwMjEtMDYtMTVUMDU6NTU6MzEuNDkyWiIsImlhdCI6MTYyMzgwODYwN30.pLVRYDQKQrmEa2A2FDMpOtmwbZPAZig0J8DpEp6w-5w"
							}
						],
						"body": {
							"mode": "raw",
							"raw": "{\n    \"id\": \"57\",\n    \"full_name\":\"Arya Cahya\",\n    \"username\": \"arya123\",\n    \"email\": \"arya@gmail.com\",\n    \"profile_picture\": \"ini url foto\"\n}",
							"options": {
								"raw": {
									"language": "json"
								}
							}
						},
						"url": {
							"raw": "https://movie-app-teamc.herokuapp.com/api/user/update",
							"protocol": "https",
							"host": [
								"movie-app-teamc",
								"herokuapp",
								"com"
							],
							"path": [
								"api",
								"user",
								"update"
							]
						}
					},
					"response": []
				}
			]
		},
		{
			"name": "Movies",
			"item": [
				{
					"name": "Get All Movies (Include genre & chars)",
					"request": {
						"method": "GET",
						"header": [],
						"url": {
							"raw": "https://movie-app-teamc.herokuapp.com/api/movies",
							"protocol": "https",
							"host": [
								"movie-app-teamc",
								"herokuapp",
								"com"
							],
							"path": [
								"api",
								"movies"
							]
						}
					},
					"response": []
				},
				{
					"name": "Get Movie Pagination",
					"request": {
						"method": "GET",
						"header": [],
						"url": {
							"raw": "https://movie-app-teamc.herokuapp.com/api/movies/pagination?page=1&size=10",
							"protocol": "https",
							"host": [
								"movie-app-teamc",
								"herokuapp",
								"com"
							],
							"path": [
								"api",
								"movies",
								"pagination"
							],
							"query": [
								{
									"key": "page",
									"value": "1"
								},
								{
									"key": "size",
									"value": "10"
								}
							]
						}
					},
					"response": []
				},
				{
					"name": "Get Movie By Title",
					"request": {
						"method": "GET",
						"header": [],
						"url": {
							"raw": "https://movie-app-teamc.herokuapp.com/api/find/movies/?title=jumanji",
							"protocol": "https",
							"host": [
								"movie-app-teamc",
								"herokuapp",
								"com"
							],
							"path": [
								"api",
								"find",
								"movies",
								""
							],
							"query": [
								{
									"key": "title",
									"value": "jumanji"
								}
							]
						}
					},
					"response": []
				},
				{
					"name": "Get Movie Genre",
					"protocolProfileBehavior": {
						"disableBodyPruning": true
					},
					"request": {
						"method": "GET",
						"header": [],
						"body": {
							"mode": "urlencoded",
							"urlencoded": [
								{
									"key": "movie_id",
									"value": "18",
									"type": "text",
									"disabled": true
								}
							]
						},
						"url": {
							"raw": "https://movie-app-teamc.herokuapp.com/api/moviesWithGenre",
							"protocol": "https",
							"host": [
								"movie-app-teamc",
								"herokuapp",
								"com"
							],
							"path": [
								"api",
								"moviesWithGenre"
							]
						}
					},
					"response": []
				},
				{
					"name": "Get All Movies With Riview & User",
					"request": {
						"method": "GET",
						"header": [],
						"url": {
							"raw": "https://movie-app-teamc.herokuapp.com/api/moviesWithReviewAndUser",
							"protocol": "https",
							"host": [
								"movie-app-teamc",
								"herokuapp",
								"com"
							],
							"path": [
								"api",
								"moviesWithReviewAndUser"
							]
						}
					},
					"response": []
				},
				{
					"name": "Get Movie By Id (Include all review & chars)",
					"protocolProfileBehavior": {
						"disableBodyPruning": true
					},
					"request": {
						"method": "GET",
						"header": [],
						"body": {
							"mode": "urlencoded",
							"urlencoded": [
								{
									"key": "id",
									"value": "1",
									"type": "text",
									"disabled": true
								}
							]
						},
						"url": {
							"raw": "https://movie-app-teamc.herokuapp.com/api/movieId/1",
							"protocol": "https",
							"host": [
								"movie-app-teamc",
								"herokuapp",
								"com"
							],
							"path": [
								"api",
								"movieId",
								"1"
							]
						}
					},
					"response": []
				}
			]
		},
		{
			"name": "Review",
			"item": [
				{
					"name": "Get All Review",
					"request": {
						"method": "GET",
						"header": [],
						"url": {
							"raw": "https://movie-app-teamc.herokuapp.com/api/reviews",
							"protocol": "https",
							"host": [
								"movie-app-teamc",
								"herokuapp",
								"com"
							],
							"path": [
								"api",
								"reviews"
							]
						}
					},
					"response": []
				},
				{
					"name": "Get user and all his review (Your Review)",
					"protocolProfileBehavior": {
						"disableBodyPruning": true
					},
					"request": {
						"method": "GET",
						"header": [],
						"body": {
							"mode": "urlencoded",
							"urlencoded": [
								{
									"key": "id",
									"value": "35",
									"type": "text",
									"disabled": true
								}
							]
						},
						"url": {
							"raw": "https://movie-app-teamc.herokuapp.com/api/user?id=35",
							"protocol": "https",
							"host": [
								"movie-app-teamc",
								"herokuapp",
								"com"
							],
							"path": [
								"api",
								"user"
							],
							"query": [
								{
									"key": "id",
									"value": "35"
								}
							]
						}
					},
					"response": []
				},
				{
					"name": "Create Review",
					"request": {
						"method": "POST",
						"header": [
							{
								"key": "Authorization",
								"value": "eyJhbGciOiJIUzI1NiIsInR5cCI6IkpXVCJ9.eyJpZCI6NjIsInJvbGUiOm51bGwsImZ1bGxfbmFtZSI6IkJhcm9uZyAiLCJ1c2VybmFtZSI6ImJhcm9uZ3NhaSIsImVtYWlsIjoiYmFyb25nQGdtYWlsLmNvbSIsInByb2ZpbGVfcGljdHVyZSI6ImluaSB1cmwgZm90byIsImNyZWF0ZWRBdCI6IjIwMjEtMDYtMTdUMTY6MjM6MjkuNjQ0WiIsInVwZGF0ZWRBdCI6IjIwMjEtMDYtMTdUMTY6MjM6MjkuNjQ0WiIsImlhdCI6MTYyMzk0ODI3NX0.G-A4QuJx9IU5Kzo67q-fsQbqTBVYhBypWU7lRWnh-i8",
								"type": "text"
							}
						],
						"body": {
							"mode": "raw",
							"raw": "{\n    \"user_id\": \"187\",\n    \"movie_id\": \"2\",\n    \"headline\": \"Keren banget\",\n    \"review\": \"Film ini recomended banget, lucu!\",\n    \"rating\": \"8\"\n}",
							"options": {
								"raw": {
									"language": "json"
								}
							}
						},
						"url": {
							"raw": "https://movie-app-teamc.herokuapp.com/api/create/review",
							"protocol": "https",
							"host": [
								"movie-app-teamc",
								"herokuapp",
								"com"
							],
							"path": [
								"api",
								"create",
								"review"
							]
						}
					},
					"response": []
				},
				{
					"name": "Update Review",
					"request": {
						"method": "PUT",
						"header": [],
						"url": {
							"raw": "https://movie-app-teamc.herokuapp.com/api/update/review",
							"protocol": "https",
							"host": [
								"movie-app-teamc",
								"herokuapp",
								"com"
							],
							"path": [
								"api",
								"update",
								"review"
							]
						}
					},
					"response": []
				},
				{
					"name": "Delete Review",
					"request": {
						"method": "DELETE",
						"header": [
							{
								"key": "Authorization",
								"value": "eyJhbGciOiJIUzI1NiIsInR5cCI6IkpXVCJ9.eyJpZCI6NjIsInJvbGUiOm51bGwsImZ1bGxfbmFtZSI6IkJhcm9uZyAiLCJ1c2VybmFtZSI6ImJhcm9uZ3NhaSIsImVtYWlsIjoiYmFyb25nQGdtYWlsLmNvbSIsInByb2ZpbGVfcGljdHVyZSI6ImluaSB1cmwgZm90byIsImNyZWF0ZWRBdCI6IjIwMjEtMDYtMTdUMTY6MjM6MjkuNjQ0WiIsInVwZGF0ZWRBdCI6IjIwMjEtMDYtMTdUMTY6MjM6MjkuNjQ0WiIsImlhdCI6MTYyMzk0ODI3NX0.G-A4QuJx9IU5Kzo67q-fsQbqTBVYhBypWU7lRWnh-i8",
								"type": "text"
							}
						],
						"body": {
							"mode": "urlencoded",
							"urlencoded": [
								{
									"key": "id",
									"value": "71",
									"type": "text"
								}
							]
						},
						"url": {
							"raw": "https://movie-app-teamc.herokuapp.com/api/delete/review",
							"protocol": "https",
							"host": [
								"movie-app-teamc",
								"herokuapp",
								"com"
							],
							"path": [
								"api",
								"delete",
								"review"
							]
						}
					},
					"response": []
				}
			]
		},
		{
			"name": "Categories",
			"item": [
				{
					"name": "Get Movie By categories",
					"request": {
						"method": "GET",
						"header": [],
						"url": {
							"raw": "https://movie-app-teamc.herokuapp.com/api/categories",
							"protocol": "https",
							"host": [
								"movie-app-teamc",
								"herokuapp",
								"com"
							],
							"path": [
								"api",
								"categories"
							]
						}
					},
					"response": []
				}
			]
		}
	]
}